<?xml version="1.0" encoding="UTF-8" standalone="no"?>
<svg xmlns:rdf="http://www.w3.org/1999/02/22-rdf-syntax-ns#" xmlns="http://www.w3.org/2000/svg" height="24" width="24" version="1.1" y="0px" x="0px" xmlns:cc="http://creativecommons.org/ns#" xmlns:dc="http://purl.org/dc/elements/1.1/">
 <path d="m12.653 2.862 9.347 18.589-8.024-3.287-1.323-15.302zm-10.425 17.422 10.026-8.539-0.843-9.745-9.183 18.284zm5.7116-3.346-5.9396 5.062h18.276l-12.336-5.062z"/>
</svg>
